All_Codes/risc_pro/5_stage/mips.vcd
$date
    Apr 10, 2023  11:06:28
$end
$version
    TOOL:	ncsim(64)	15.20-s051
$end
$timescale
    1 ns
$end

$scope module tb1_mips32 $end
$var reg       1 !    clk1  $end
$var reg       1 "    clk2  $end
$var integer  32 #    k  $end

$scope module mips $end
$var wire      1 $    clk1  $end
$var wire      1 %    clk2  $end
$var reg      32 &    PC [31:0] $end
$var reg      32 '    IF_ID_IR [31:0] $end
$var reg      32 (    IF_ID_NPC [31:0] $end
$var reg      32 )    ID_EX_IR [31:0] $end
$var reg      32 *    ID_EX_NPC [31:0] $end
$var reg      32 +    ID_EX_A [31:0] $end
$var reg      32 ,    ID_EX_B [31:0] $end
$var reg      32 -    ID_EX_Imm [31:0] $end
$var reg       3 .    ID_EX_type [2:0] $end
$var reg       3 /    EX_MEM_type [2:0] $end
$var reg       3 0    MEM_WB_type [2:0] $end
$var reg      32 1    EX_MEM_IR [31:0] $end
$var reg      32 2    EX_MEM_ALUOut [31:0] $end
$var reg      32 3    EX_MEM_B [31:0] $end
$var reg       1 4    EX_MEM_cond  $end
$var reg      32 5    MEM_WB_IR [31:0] $end
$var reg      32 6    MEM_WB_ALUOut [31:0] $end
$var reg      32 7    MEM_WB_LMD [31:0] $end
$var parameter  6 8    ADD  $end
$var parameter  6 9    SUB  $end
$var parameter  6 :    AND  $end
$var parameter  6 ;    OR  $end
$var parameter  6 <    SLT  $end
$var parameter  6 =    MUL  $end
$var parameter  6 >    HLT  $end
$var parameter  6 ?    LW  $end
$var parameter  6 @    SW  $end
$var parameter  6 A    ADDI  $end
$var parameter  6 B    SUBI  $end
$var parameter  6 C    SLTI  $end
$var parameter  6 D    BNEQZ  $end
$var parameter  6 E    BEQZ  $end
$var parameter  3 F    RR_ALU  $end
$var parameter  3 G    RM_ALU  $end
$var parameter  3 H    LOAD  $end
$var parameter  3 I    STORE  $end
$var parameter  3 J    BRANCH  $end
$var parameter  3 K    HALT  $end
$var reg       1 L    HALTED  $end
$var reg       1 M    TAKEN_BRANCH  $end
$upscope $end

$upscope $end

$enddefinitions $end
$dumpvars
b101 K
b100 J
b11 I
b10 H
b1 G
b0 F
b1110 E
b1101 D
b1100 C
b1011 B
b1010 A
b1001 @
b1000 ?
b111111 >
b101 =
b100 <
b11 ;
b10 :
b1 9
b0 8
0!
0"
b11111 #
0$
0%
b0 &
bx '
bx (
bx )
bx *
bx +
bx ,
bx -
bx .
bx /
bx 0
bx 1
bx 2
bx 3
x4
bx 5
bx 6
bx 7
0L
0M
$end
#5
1!
1$
#7
b101000000000010000000001111000 '
b1 (
b1 &
#10
0!
0$
#15
1"
1%
b0 +
#17
b1 ,
b1 *
b101000000000010000000001111000 )
b1111000 -
b1 .
#20
0"
0%
#25
1!
1$
#27
b1 /
b101000000000010000000001111000 1
b1111000 2
b1100011000110001100000000000 '
b10 (
b10 &
#30
0!
0$
#35
1"
1%
b1 0
#37
b101000000000010000000001111000 5
b1111000 6
b11 +
b11 ,
b10 *
b1100011000110001100000000000 )
b1100000000000 -
b0 .
#40
0"
0%
#45
1!
1$
#47
b0 /
b1100011000110001100000000000 1
b11 2
b100000001000100000000000000000 '
b11 (
b11 &
#50
0!
0$
#55
1"
1%
b0 0
#57
b1100011000110001100000000000 5
b11 6
b1111000 +
b10 ,
b11 *
b100000001000100000000000000000 )
b0 -
b10 .
#60
0"
0%
#65
1!
1$
#67
b10 /
b100000001000100000000000000000 1
b1111000 2
b10 3
b1100011000110001100000000000 '
b100 (
b100 &
#70
0!
0$
#75
1"
1%
b10 0
#77
b100000001000100000000000000000 5
b1010101 7
b11 +
b11 ,
b100 *
b1100011000110001100000000000 )
b1100000000000 -
b0 .
#80
0"
0%
#85
1!
1$
#87
b0 /
b1100011000110001100000000000 1
b11 2
b101000010000100000000000101101 '
b101 (
b101 &
#90
0!
0$
#95
1"
1%
b0 0
#97
b1100011000110001100000000000 5
b1010101 +
b1010101 ,
b101 *
b101000010000100000000000101101 )
b101101 -
b1 .
#100
0"
0%
#105
1!
1$
#107
b1 /
b101000010000100000000000101101 1
b10000010 2
b1100011000110001100000000000 '
b110 (
b110 &
#110
0!
0$
#115
1"
1%
b1 0
#117
b101000010000100000000000101101 5
b10000010 6
b11 +
b11 ,
b110 *
b1100011000110001100000000000 )
b1100000000000 -
b0 .
#120
0"
0%
#125
1!
1$
#127
b0 /
b1100011000110001100000000000 1
b11 2
b100100001000100000000000000001 '
b111 (
b111 &
#130
0!
0$
#135
1"
1%
b0 0
#137
b1100011000110001100000000000 5
b11 6
b1111000 +
b10000010 ,
b111 *
b100100001000100000000000000001 )
b1 -
b11 .
#140
0"
0%
#145
1!
1$
#147
b11 /
b100100001000100000000000000001 1
b1111001 2
b10000010 3
b11111100000000000000000000000000 '
b1000 (
b1000 &
#150
0!
0$
#155
1"
1%
b11 0
b0 +
b0 ,
#157
b100100001000100000000000000001 5
b1000 *
b11111100000000000000000000000000 )
b0 -
b101 .
#160
0"
0%
#165
1!
1$
#167
b101 /
b11111100000000000000000000000000 1
bx '
b1001 (
b1001 &
#170
0!
0$
#175
1"
1%
b101 0
#177
b11111100000000000000000000000000 5
bx +
bx ,
b1001 *
bx )
bx -
#180
0"
0%
#185
1!
1$
#187
1L
bx 1
b1010 (
b1010 &
